<?xml version="1.0" encoding="utf-8"?>
<!-- Generated by IcoMoon.io -->
<!DOCTYPE svg PUBLIC "-//W3C//DTD SVG 1.1//EN" "http://www.w3.org/Graphics/SVG/1.1/DTD/svg11.dtd">
<svg version="1.1" xmlns="http://www.w3.org/2000/svg" xmlns:xlink="http://www.w3.org/1999/xlink" width="55" height="55" viewBox="0 0 55 55">
<g id="icomoon-ignore">
	<line stroke-width="1" x1="" y1="" x2="" y2="" stroke="#449FDB" opacity=""></line>
</g>
	<path d="M27.5 6.016c-12.342 0-22.344 10.003-22.344 22.344s10.001 22.344 22.344 22.344c12.339 0 22.344-10.003 22.344-22.344s-10.003-22.344-22.344-22.344zM27.32 46.453c-9.967 0-18.047-8.080-18.047-18.047s8.080-18.047 18.047-18.047c9.965 0 18.047 8.080 18.047 18.047s-8.082 18.047-18.047 18.047zM32.536 29.444h-5.122v-8.649c0-0.938-0.761-1.702-1.7-1.702-0.94 0-1.702 0.761-1.702 1.702v10.349c0 0.94 0.761 1.7 1.702 1.7h6.822c0.94 0 1.702-0.76 1.702-1.7 0-0.938-0.761-1.7-1.702-1.7z" fill="#000000"></path>
</svg>
