<?xml version="1.0" encoding="iso-8859-1"?>
<!-- Generator: Adobe Illustrator 17.1.0, SVG Export Plug-In . SVG Version: 6.00 Build 0)  -->
<!DOCTYPE svg PUBLIC "-//W3C//DTD SVG 1.1//EN" "http://www.w3.org/Graphics/SVG/1.1/DTD/svg11.dtd">
<svg version="1.1" id="Layer_1" xmlns="http://www.w3.org/2000/svg" xmlns:xlink="http://www.w3.org/1999/xlink" x="0px" y="0px"
	 viewBox="0 0 121.604 120.495" style="enable-background:new 0 0 121.604 120.495;" xml:space="preserve">
<circle style="fill:none;stroke:#ffffff;stroke-width:6;stroke-miterlimit:10;" cx="43.152" cy="41.662" r="34.726"/>
<path d="M120.815,108.285c1.051,1.052,1.051,2.757,0,3.808l-7.614,7.614c-1.051,1.051-2.755,1.052-3.807,0L81.222,91.535
	c-1.051-1.052-1.051-2.756,0-3.808l7.614-7.613c1.052-1.052,2.756-1.052,3.808,0L120.815,108.285z"/>
<path d="M73.228,64.885c-1.051-1.052-2.756-1.052-3.807,0l-3.426,3.426c-1.051,1.052-1.051,2.757,0,3.808L82.936,89.06
	c1.051,1.051,2.756,1.051,3.807,0l3.426-3.427c1.051-1.051,1.051-2.755,0-3.807L73.228,64.885z"/>
</svg>
